Golf, Tidy Data, and Using Data Analysis to Guide Strategy
…
Each type of observational unit is a table (this isn’t as important for this post)

It’s important to think about those two bolded words within the context of this analysis. We’re interested in making our way around a golf course, to hopefully play our best. Playing our best means minimizing mistakes throughout a round of golf.

Some people like to think of golf as a game composed of 18 “mini games” within it. For an analysis with the primary focus of identifying ways to get around the course as strategically as possible, I think the best way to look at the data is to have each observational unit be the score on one hole for each competitor. Our tidy data set is constructed this way, with one row per competitor per hole. The untidy data has a structure of one row per competitor. This structure may be useful if we’re only interested in looking at final scores for each competitor. It’s also useful for a concise summary of a competitor’s performance on a website (which was its original purpose).

Transforming the data from untidy to tidy is fairly simple using the gather function from the tidyr package.

untidy_scores %>%
  # only select a handful of columns to make printing easier
  select(-year, -out, -`in`, -tot, -tourn_type, -tourn_year) %>%
  gather(hole, score, -name)

## # A tibble: 8,496 x 3
##    name  hole  score
##    <chr> <chr> <int>
##  1 A1    1         7
##  2 A2    1         5
##  3 A3    1         7
##  4 A4    1         8
##  5 A5    1        14
##  6 A6    1         6
##  7 A7    1         7
##  8 A8    1         6
##  9 A9    1         7
## 10 A10   1        11
## # ... with 8,486 more rows
…
