An Introduction to Reading Data into R
…
college_data # nice printing of data, don't need head() or tail()

## # A tibble: 173 x 11
##    Major_code Major Major_category  Total Employed Employed_full_t~
##         <dbl> <chr> <chr>           <dbl>    <dbl>            <dbl>
##  1       1100 GENE~ Agriculture &~ 128148    90245            74078
##  2       1101 AGRI~ Agriculture &~  95326    76865            64240
##  3       1102 AGRI~ Agriculture &~  33955    26321            22810
##  4       1103 ANIM~ Agriculture &~ 103549    81177            64937
##  5       1104 FOOD~ Agriculture &~  24280    17281            12722
##  6       1105 PLAN~ Agriculture &~  79409    63043            51077
##  7       1106 SOIL~ Agriculture &~   6586     4926             4042
##  8       1199 MISC~ Agriculture &~   8549     6392             5074
##  9       1301 ENVI~ Biology & Lif~ 106106    87602            65238
## 10       1302 FORE~ Agriculture &~  69447    48228            39613
## # ... with 163 more rows, and 5 more variables: Unemployed <dbl>,
## #   Unemployment_rate <dbl>, Median <dbl>, P25th <dbl>, P75th <dbl>
…
